{
  "id": "default",
  "description": "Default settings",
  "engineFactory": "org.template.recommendation.RecommendationEngine",
  "datasource": {
    "params" : {
      "appName": "musicapp"
    }
  },
  "algorithms": [
    {
      "name": "als",
      "params": {
        "rank": 10,
        "numIterations": 10,
        "lambda": 0.01,
        "seed": 3
      }
    }
  ]
}
